<?xml version="1.0" encoding="UTF-8" standalone="no"?>
<!-- Created with Inkscape (http://www.inkscape.org/) -->

<svg
   xmlns:dc="http://purl.org/dc/elements/1.1/"
   xmlns:cc="http://creativecommons.org/ns#"
   xmlns:rdf="http://www.w3.org/1999/02/22-rdf-syntax-ns#"
   xmlns:svg="http://www.w3.org/2000/svg"
   xmlns="http://www.w3.org/2000/svg"
   xmlns:sodipodi="http://sodipodi.sourceforge.net/DTD/sodipodi-0.dtd"
   xmlns:inkscape="http://www.inkscape.org/namespaces/inkscape"
   width="624.09003"
   height="596.35999"
   id="svg4930"
   version="1.1"
   inkscape:version="0.48.2 r9819"
   sodipodi:docname="ArmarX-IceGrid-Structure.svg">
  <defs
     id="defs4932">
    <marker
       inkscape:stockid="Arrow1Mend"
       orient="auto"
       refY="0"
       refX="0"
       id="Arrow1Mend"
       style="overflow:visible">
      <path
         id="path3841"
         d="M 0,0 5,-5 -12.5,0 5,5 0,0 z"
         style="fill-rule:evenodd;stroke:#000000;stroke-width:1pt;marker-start:none"
         transform="matrix(-0.4,0,0,-0.4,-4,0)"
         inkscape:connector-curvature="0" />
    </marker>
    <marker
       inkscape:stockid="Arrow1Send"
       orient="auto"
       refY="0"
       refX="0"
       id="Arrow1Send"
       style="overflow:visible">
      <path
         id="path3847"
         d="M 0,0 5,-5 -12.5,0 5,5 0,0 z"
         style="fill-rule:evenodd;stroke:#000000;stroke-width:1pt;marker-start:none"
         transform="matrix(-0.2,0,0,-0.2,-1.2,0)"
         inkscape:connector-curvature="0" />
    </marker>
  </defs>
  <sodipodi:namedview
     id="base"
     pagecolor="#ffffff"
     bordercolor="#666666"
     borderopacity="1.0"
     inkscape:pageopacity="0.0"
     inkscape:pageshadow="2"
     inkscape:zoom="0.98994949"
     inkscape:cx="332.20873"
     inkscape:cy="340.98043"
     inkscape:document-units="px"
     inkscape:current-layer="layer1"
     showgrid="false"
     inkscape:window-width="1530"
     inkscape:window-height="859"
     inkscape:window-x="332"
     inkscape:window-y="183"
     inkscape:window-maximized="0"
     showguides="true"
     inkscape:guide-bbox="true" />
  <metadata
     id="metadata4935">
    <rdf:RDF>
      <cc:Work
         rdf:about="">
        <dc:format>image/svg+xml</dc:format>
        <dc:type
           rdf:resource="http://purl.org/dc/dcmitype/StillImage" />
        <dc:title></dc:title>
      </cc:Work>
    </rdf:RDF>
  </metadata>
  <g
     inkscape:label="Ebene 1"
     inkscape:groupmode="layer"
     id="layer1"
     transform="translate(0,-455.99592)">
    <g
       id="g6765"
       transform="translate(130,662.5)">
      <rect
         style="fill:#ffffff;fill-opacity:1;stroke:#000000;stroke-width:2.19235086;stroke-linejoin:miter;stroke-miterlimit:4;stroke-opacity:1;stroke-dasharray:none;stroke-dashoffset:0"
         id="rect6728"
         width="220"
         height="144.4391"
         x="262.04724"
         y="55.531982" />
      <text
         xml:space="preserve"
         style="font-size:36px;font-style:normal;font-variant:normal;font-weight:normal;font-stretch:normal;text-align:center;line-height:125%;letter-spacing:0px;word-spacing:0px;writing-mode:lr-tb;text-anchor:middle;fill:#000000;fill-opacity:1;stroke:none;font-family:Sans;-inkscape-font-specification:Sans"
         x="371.07068"
         y="103.78833"
         id="text6730"
         sodipodi:linespacing="125%"><tspan
           id="tspan6736"
           sodipodi:role="line"
           x="371.07068"
           y="103.78833"
           style="font-size:36px;font-style:normal;font-variant:normal;font-weight:normal;font-stretch:normal;text-align:center;line-height:125%;writing-mode:lr-tb;text-anchor:middle;font-family:Sans;-inkscape-font-specification:Sans">IceGrid</tspan></text>
    </g>
    <g
       id="g6783">
      <g
         id="g6750"
         transform="matrix(1.3136796,0,0,3.953187,-335.35127,250.66743)"
         style="stroke-width:0.85960114;stroke-miterlimit:4;stroke-dasharray:none">
        <rect
           style="fill:#ffffff;fill-opacity:1;stroke:#000000;stroke-width:0.85960114;stroke-linejoin:miter;stroke-miterlimit:4;stroke-opacity:1;stroke-dasharray:none;stroke-dashoffset:0"
           id="rect6752"
           width="220"
           height="144.4391"
           x="262.04724"
           y="55.531982" />
      </g>
      <text
         sodipodi:linespacing="125%"
         id="text6761"
         y="515.45581"
         x="141.26776"
         style="font-size:36px;font-style:normal;font-variant:normal;font-weight:normal;font-stretch:normal;text-align:center;line-height:125%;letter-spacing:0px;word-spacing:0px;writing-mode:lr-tb;text-anchor:middle;fill:#000000;fill-opacity:1;stroke:none;font-family:Sans;-inkscape-font-specification:Sans"
         xml:space="preserve"><tspan
           style="font-size:36px;font-style:normal;font-variant:normal;font-weight:normal;font-stretch:normal;text-align:center;line-height:125%;writing-mode:lr-tb;text-anchor:middle;font-family:Sans;-inkscape-font-specification:Sans"
           y="515.45581"
           x="141.26776"
           sodipodi:role="line"
           id="tspan6763">Robot</tspan></text>
    </g>
    <g
       id="g6669"
       transform="translate(-240,502.5)">
      <rect
         y="55.531982"
         x="262.04724"
         height="144.4391"
         width="220"
         id="rect5542"
         style="fill:#ffffff;fill-opacity:1;stroke:#000000;stroke-width:2.19235086;stroke-linejoin:miter;stroke-miterlimit:4;stroke-opacity:1;stroke-dasharray:none;stroke-dashoffset:0" />
      <text
         sodipodi:linespacing="125%"
         id="text5544"
         y="95.78833"
         x="371.07068"
         style="font-size:36px;font-style:normal;font-variant:normal;font-weight:normal;font-stretch:normal;text-align:center;line-height:125%;letter-spacing:0px;word-spacing:0px;writing-mode:lr-tb;text-anchor:middle;fill:#000000;fill-opacity:1;stroke:none;font-family:Sans;-inkscape-font-specification:Sans"
         xml:space="preserve"><tspan
           style="font-size:36px;font-style:normal;font-variant:normal;font-weight:normal;font-stretch:normal;text-align:center;line-height:125%;writing-mode:lr-tb;text-anchor:middle;font-family:Sans;-inkscape-font-specification:Sans"
           y="95.78833"
           x="371.07068"
           sodipodi:role="line"
           id="tspan5562">IceGrid-</tspan><tspan
           style="font-size:36px;font-style:normal;font-variant:normal;font-weight:normal;font-stretch:normal;text-align:center;line-height:125%;writing-mode:lr-tb;text-anchor:middle;font-family:Sans;-inkscape-font-specification:Sans"
           y="140.78833"
           x="371.07068"
           sodipodi:role="line"
           id="tspan6665">Node 1</tspan><tspan
           style="font-size:36px;font-style:normal;font-variant:normal;font-weight:normal;font-stretch:normal;text-align:center;line-height:125%;writing-mode:lr-tb;text-anchor:middle;font-family:Sans;-inkscape-font-specification:Sans"
           y="185.78833"
           x="371.07068"
           sodipodi:role="line"
           id="tspan6667">(IceStorm)</tspan></text>
    </g>
    <g
       transform="translate(-240,662.5)"
       id="g6676">
      <rect
         style="fill:#ffffff;fill-opacity:1;stroke:#000000;stroke-width:2.19235086;stroke-linejoin:miter;stroke-miterlimit:4;stroke-opacity:1;stroke-dasharray:none;stroke-dashoffset:0"
         id="rect6678"
         width="220"
         height="144.4391"
         x="262.04724"
         y="55.531982" />
      <text
         xml:space="preserve"
         style="font-size:36px;font-style:normal;font-variant:normal;font-weight:normal;font-stretch:normal;text-align:center;line-height:125%;letter-spacing:0px;word-spacing:0px;writing-mode:lr-tb;text-anchor:middle;fill:#000000;fill-opacity:1;stroke:none;font-family:Sans;-inkscape-font-specification:Sans"
         x="371.07068"
         y="95.78833"
         id="text6680"
         sodipodi:linespacing="125%"><tspan
           id="tspan6682"
           sodipodi:role="line"
           x="371.07068"
           y="95.78833"
           style="font-size:36px;font-style:normal;font-variant:normal;font-weight:normal;font-stretch:normal;text-align:center;line-height:125%;writing-mode:lr-tb;text-anchor:middle;font-family:Sans;-inkscape-font-specification:Sans">IceGrid-</tspan><tspan
           id="tspan6684"
           sodipodi:role="line"
           x="371.07068"
           y="140.78833"
           style="font-size:36px;font-style:normal;font-variant:normal;font-weight:normal;font-stretch:normal;text-align:center;line-height:125%;writing-mode:lr-tb;text-anchor:middle;font-family:Sans;-inkscape-font-specification:Sans">Node 2</tspan><tspan
           id="tspan6686"
           sodipodi:role="line"
           x="371.07068"
           y="185.78833"
           style="font-size:36px;font-style:normal;font-variant:normal;font-weight:normal;font-stretch:normal;text-align:center;line-height:125%;writing-mode:lr-tb;text-anchor:middle;font-family:Sans;-inkscape-font-specification:Sans">(Registry)</tspan></text>
    </g>
    <g
       id="g6688"
       transform="translate(-240,822.5)">
      <rect
         y="55.531982"
         x="262.04724"
         height="144.4391"
         width="220"
         id="rect6690"
         style="fill:#ffffff;fill-opacity:1;stroke:#000000;stroke-width:2.19235086;stroke-linejoin:miter;stroke-miterlimit:4;stroke-opacity:1;stroke-dasharray:none;stroke-dashoffset:0" />
      <text
         sodipodi:linespacing="125%"
         id="text6692"
         y="95.78833"
         x="371.07068"
         style="font-size:36px;font-style:normal;font-variant:normal;font-weight:normal;font-stretch:normal;text-align:center;line-height:125%;letter-spacing:0px;word-spacing:0px;writing-mode:lr-tb;text-anchor:middle;fill:#000000;fill-opacity:1;stroke:none;font-family:Sans;-inkscape-font-specification:Sans"
         xml:space="preserve"><tspan
           style="font-size:36px;font-style:normal;font-variant:normal;font-weight:normal;font-stretch:normal;text-align:center;line-height:125%;writing-mode:lr-tb;text-anchor:middle;font-family:Sans;-inkscape-font-specification:Sans"
           y="95.78833"
           x="371.07068"
           sodipodi:role="line"
           id="tspan6694">IceGrid-</tspan><tspan
           style="font-size:36px;font-style:normal;font-variant:normal;font-weight:normal;font-stretch:normal;text-align:center;line-height:125%;writing-mode:lr-tb;text-anchor:middle;font-family:Sans;-inkscape-font-specification:Sans"
           y="140.78833"
           x="371.07068"
           sodipodi:role="line"
           id="tspan6698">Node 3</tspan></text>
    </g>
    <g
       id="g6770"
       transform="translate(0,330)">
      <path
         sodipodi:nodetypes="cc"
         inkscape:connector-curvature="0"
         id="path5727"
         d="m 388.90873,460.41279 -140.55651,0"
         style="fill:none;stroke:#000000;stroke-width:5;stroke-linecap:butt;stroke-linejoin:miter;stroke-miterlimit:4;stroke-opacity:1;stroke-dasharray:10, 10;stroke-dashoffset:0;marker-end:url(#Arrow1Mend)" />
      <path
         sodipodi:nodetypes="cccc"
         inkscape:connector-curvature="0"
         id="path6107"
         d="m 386.74312,460.41279 -33.33503,0 0,159.6041 -105.05587,0"
         style="fill:none;stroke:#000000;stroke-width:5;stroke-linecap:butt;stroke-linejoin:miter;stroke-miterlimit:4;stroke-opacity:1;stroke-dasharray:10, 10;stroke-dashoffset:0;marker-end:url(#Arrow1Mend)" />
      <path
         sodipodi:nodetypes="cccc"
         inkscape:connector-curvature="0"
         id="path6293"
         d="m 386.74312,460.41279 -33.33503,0 0,-160.61426 -105.05587,0"
         style="fill:none;stroke:#000000;stroke-width:5;stroke-linecap:butt;stroke-linejoin:miter;stroke-miterlimit:4;stroke-opacity:1;stroke-dasharray:10, 10;stroke-dashoffset:0;marker-end:url(#Arrow1Mend)" />
    </g>
  </g>
</svg>
